{"count": 2259, "next": "https://hub.docker.com/v2/repositories/kdeneon/plasma/buildhistory/?page=2&page_size=10", "previous": null, "results": [{"id": 20363530, "status": 0, "created_date": "2018-02-15T14:22:13.235824Z", "last_updated": "2018-02-15T14:22:13.236143Z", "build_code": "bfopzf4fz4ml52zkfvwwmwp", "dockertag_name": "latest", "cause": "VCS_CHANGE"}, {"id": 20363529, "status": 0, "created_date": "2018-02-15T14:22:12.435735Z", "last_updated": "2018-02-15T14:22:12.436113Z", "build_code": "bcguj5afanee7nkn5fgbjw5", "dockertag_name": "dev-unstable", "cause": "VCS_CHANGE"}, {"id": 20363528, "status": 0, "created_date": "2018-02-15T14:22:12.403696Z", "last_updated": "2018-02-15T14:22:12.404064Z", "build_code": "bg2ccqeunt6wwafbb8xikfc", "dockertag_name": "user", "cause": "VCS_CHANGE"}, {"id": 20363526, "status": 0, "created_date": "2018-02-15T14:22:11.406420Z", "last_updated": "2018-02-15T14:22:11.406772Z", "build_code": "bckkhukr3vr9bbrgpuwjvfh", "dockertag_name": "dev-stable", "cause": "VCS_CHANGE"}, {"id": 20363516, "status": 0, "created_date": "2018-02-15T14:21:35.444107Z", "last_updated": "2018-02-15T14:21:35.444392Z", "build_code": "bd8sklzyezj9arxp99wkl2c", "dockertag_name": "user-lts", "cause": "VCS_CHANGE"}, {"id": 20270496, "status": -1, "created_date": "2018-02-14T01:22:03.530760Z", "last_updated": "2018-02-14T04:12:30.025892Z", "build_code": "bcwbypqf7jj3rqsagzjmjgf", "dockertag_name": "dev-unstable-development", "cause": "TRIGGERED_VIA_WEBHOOK"}, {"id": 20270454, "status": -1, "created_date": "2018-02-14T01:20:06.932952Z", "last_updated": "2018-02-14T02:14:49.297670Z", "build_code": "b2qgzl5g9frz2njlab6hez3", "dockertag_name": "latest", "cause": "TRIGGERED_VIA_WEBHOOK"}, {"id": 20270453, "status": -1, "created_date": "2018-02-14T01:20:06.293226Z", "last_updated": "2018-02-14T02:12:39.533923Z", "build_code": "bc8peaxkrcqerxlcjquzums", "dockertag_name": "dev-unstable", "cause": "TRIGGERED_VIA_WEBHOOK"}, {"id": 20270452, "status": -1, "created_date": "2018-02-14T01:20:05.723157Z", "last_updated": "2018-02-14T01:57:02.634112Z", "build_code": "bgvtxbdtyeznc323ypqdldl", "dockertag_name": "dev-stable", "cause": "TRIGGERED_VIA_WEBHOOK"}, {"id": 20270451, "status": -1, "created_date": "2018-02-14T01:20:05.115669Z", "last_updated": "2018-02-14T01:24:21.426489Z", "build_code": "bu77nwyarscvxj2tfgzsqee", "dockertag_name": "user", "cause": "TRIGGERED_VIA_WEBHOOK"}]}